%YAML 1.1
%TAG !u! tag:unity3d.com,2011:
--- !u!114 &11400000
MonoBehaviour:
  m_ObjectHideFlags: 0
  m_CorrespondingSourceObject: {fileID: 0}
  m_PrefabInstance: {fileID: 0}
  m_PrefabAsset: {fileID: 0}
  m_GameObject: {fileID: 0}
  m_Enabled: 1
  m_EditorHideFlags: 0
  m_Script: {fileID: 11500000, guid: 51eb6743ae9a72e4cabcf25cc16b63b8, type: 3}
  m_Name: QuestTwo
  m_EditorClassIdentifier: 
  questID: 1
  questType: 1
  questTitle: Quest Two
  questDescription: Find 1xItem3 and 2xItem1
