%YAML 1.1
%TAG !u! tag:unity3d.com,2011:
--- !u!114 &11400000
MonoBehaviour:
  m_ObjectHideFlags: 0
  m_CorrespondingSourceObject: {fileID: 0}
  m_PrefabInstance: {fileID: 0}
  m_PrefabAsset: {fileID: 0}
  m_GameObject: {fileID: 0}
  m_Enabled: 1
  m_EditorHideFlags: 0
  m_Script: {fileID: 11500000, guid: 42f1735131285ba4c85e6d8eef072159, type: 3}
  m_Name: Item3
  m_EditorClassIdentifier: 
  itemType: 2
  itemName: Item3
  itemSprite: {fileID: 21300000, guid: e32bcfbb720d7f54bb749d6d4417b932, type: 3}
